^C:\USERS\ACER - 419082\DOCUMENTS\VISUAL STUDIO 2013\PROJECTS\UDEMY PROJ 1\UDEMY PROJ 1\CLEANUP.CPP
/c /IC:\sdl2\include /ZI /nologo /W3 /WX- /sdl /Od /Oy- /D _MBCS /Gm /EHsc /RTC1 /MDd /GS /fp:precise /Zc:wchar_t /Zc:forScope /Fo"DEBUG\\" /Fd"DEBUG\VC120.PDB" /Gd /TP /analyze- C:\USERS\ACER - 419082\DOCUMENTS\VISUAL STUDIO 2013\PROJECTS\UDEMY PROJ 1\UDEMY PROJ 1\CLEANUP.CPP
^C:\USERS\ACER - 419082\DOCUMENTS\VISUAL STUDIO 2013\PROJECTS\UDEMY PROJ 1\UDEMY PROJ 1\DRAWING_FUNCTIONS.CPP
/c /IC:\sdl2\include /ZI /nologo /W3 /WX- /sdl /Od /Oy- /D _MBCS /Gm /EHsc /RTC1 /MDd /GS /fp:precise /Zc:wchar_t /Zc:forScope /Fo"DEBUG\\" /Fd"DEBUG\VC120.PDB" /Gd /TP /analyze- C:\USERS\ACER - 419082\DOCUMENTS\VISUAL STUDIO 2013\PROJECTS\UDEMY PROJ 1\UDEMY PROJ 1\DRAWING_FUNCTIONS.CPP
^C:\USERS\ACER - 419082\DOCUMENTS\VISUAL STUDIO 2013\PROJECTS\UDEMY PROJ 1\UDEMY PROJ 1\GLOBALS.CPP
/c /IC:\sdl2\include /ZI /nologo /W3 /WX- /sdl /Od /Oy- /D _MBCS /Gm /EHsc /RTC1 /MDd /GS /fp:precise /Zc:wchar_t /Zc:forScope /Fo"DEBUG\\" /Fd"DEBUG\VC120.PDB" /Gd /TP /analyze- C:\USERS\ACER - 419082\DOCUMENTS\VISUAL STUDIO 2013\PROJECTS\UDEMY PROJ 1\UDEMY PROJ 1\GLOBALS.CPP
^C:\USERS\ACER - 419082\DOCUMENTS\VISUAL STUDIO 2013\PROJECTS\UDEMY PROJ 1\UDEMY PROJ 1\MAIN.CPP
/c /IC:\sdl2\include /ZI /nologo /W3 /WX- /sdl /Od /Oy- /D _MBCS /Gm /EHsc /RTC1 /MDd /GS /fp:precise /Zc:wchar_t /Zc:forScope /Fo"DEBUG\\" /Fd"DEBUG\VC120.PDB" /Gd /TP /analyze- C:\USERS\ACER - 419082\DOCUMENTS\VISUAL STUDIO 2013\PROJECTS\UDEMY PROJ 1\UDEMY PROJ 1\MAIN.CPP
^C:\USERS\ACER - 419082\DOCUMENTS\VISUAL STUDIO 2013\PROJECTS\UDEMY PROJ 1\UDEMY PROJ 1\RANDOMNUMBER.CPP
/c /IC:\sdl2\include /ZI /nologo /W3 /WX- /sdl /Od /Oy- /D _MBCS /Gm /EHsc /RTC1 /MDd /GS /fp:precise /Zc:wchar_t /Zc:forScope /Fo"DEBUG\\" /Fd"DEBUG\VC120.PDB" /Gd /TP /analyze- C:\USERS\ACER - 419082\DOCUMENTS\VISUAL STUDIO 2013\PROJECTS\UDEMY PROJ 1\UDEMY PROJ 1\RANDOMNUMBER.CPP
^C:\USERS\ACER - 419082\DOCUMENTS\VISUAL STUDIO 2013\PROJECTS\UDEMY PROJ 1\UDEMY PROJ 1\RES_PATH.CPP
/c /IC:\sdl2\include /ZI /nologo /W3 /WX- /sdl /Od /Oy- /D _MBCS /Gm /EHsc /RTC1 /MDd /GS /fp:precise /Zc:wchar_t /Zc:forScope /Fo"DEBUG\\" /Fd"DEBUG\VC120.PDB" /Gd /TP /analyze- C:\USERS\ACER - 419082\DOCUMENTS\VISUAL STUDIO 2013\PROJECTS\UDEMY PROJ 1\UDEMY PROJ 1\RES_PATH.CPP
^C:\USERS\ACER - 419082\DOCUMENTS\VISUAL STUDIO 2013\PROJECTS\UDEMY PROJ 1\UDEMY PROJ 1\ANIMATION.CPP
/c /IC:\sdl2\include /ZI /nologo /W3 /WX- /sdl /Od /Oy- /D _MBCS /Gm /EHsc /RTC1 /MDd /GS /fp:precise /Zc:wchar_t /Zc:forScope /Fo"DEBUG\\" /Fd"DEBUG\VC120.PDB" /Gd /TP /analyze- C:\USERS\ACER - 419082\DOCUMENTS\VISUAL STUDIO 2013\PROJECTS\UDEMY PROJ 1\UDEMY PROJ 1\ANIMATION.CPP
^C:\USERS\ACER - 419082\DOCUMENTS\VISUAL STUDIO 2013\PROJECTS\UDEMY PROJ 1\UDEMY PROJ 1\ANIMATIONSET.CPP
/c /IC:\sdl2\include /ZI /nologo /W3 /WX- /sdl /Od /Oy- /D _MBCS /Gm /EHsc /RTC1 /MDd /GS /fp:precise /Zc:wchar_t /Zc:forScope /Fo"DEBUG\\" /Fd"DEBUG\VC120.PDB" /Gd /TP /analyze- C:\USERS\ACER - 419082\DOCUMENTS\VISUAL STUDIO 2013\PROJECTS\UDEMY PROJ 1\UDEMY PROJ 1\ANIMATIONSET.CPP
^C:\USERS\ACER - 419082\DOCUMENTS\VISUAL STUDIO 2013\PROJECTS\UDEMY PROJ 1\UDEMY PROJ 1\ENEMY.CPP
/c /IC:\sdl2\include /ZI /nologo /W3 /WX- /sdl /Od /Oy- /D _MBCS /Gm /EHsc /RTC1 /MDd /GS /fp:precise /Zc:wchar_t /Zc:forScope /Fo"DEBUG\\" /Fd"DEBUG\VC120.PDB" /Gd /TP /analyze- C:\USERS\ACER - 419082\DOCUMENTS\VISUAL STUDIO 2013\PROJECTS\UDEMY PROJ 1\UDEMY PROJ 1\ENEMY.CPP
^C:\USERS\ACER - 419082\DOCUMENTS\VISUAL STUDIO 2013\PROJECTS\UDEMY PROJ 1\UDEMY PROJ 1\ENTITY.CPP
/c /IC:\sdl2\include /ZI /nologo /W3 /WX- /sdl /Od /Oy- /D _MBCS /Gm /EHsc /RTC1 /MDd /GS /fp:precise /Zc:wchar_t /Zc:forScope /Fo"DEBUG\\" /Fd"DEBUG\VC120.PDB" /Gd /TP /analyze- C:\USERS\ACER - 419082\DOCUMENTS\VISUAL STUDIO 2013\PROJECTS\UDEMY PROJ 1\UDEMY PROJ 1\ENTITY.CPP
^C:\USERS\ACER - 419082\DOCUMENTS\VISUAL STUDIO 2013\PROJECTS\UDEMY PROJ 1\UDEMY PROJ 1\GAME.CPP
/c /IC:\sdl2\include /ZI /nologo /W3 /WX- /sdl /Od /Oy- /D _MBCS /Gm /EHsc /RTC1 /MDd /GS /fp:precise /Zc:wchar_t /Zc:forScope /Fo"DEBUG\\" /Fd"DEBUG\VC120.PDB" /Gd /TP /analyze- C:\USERS\ACER - 419082\DOCUMENTS\VISUAL STUDIO 2013\PROJECTS\UDEMY PROJ 1\UDEMY PROJ 1\GAME.CPP
^C:\USERS\ACER - 419082\DOCUMENTS\VISUAL STUDIO 2013\PROJECTS\UDEMY PROJ 1\UDEMY PROJ 1\HERO.CPP
/c /IC:\sdl2\include /ZI /nologo /W3 /WX- /sdl /Od /Oy- /D _MBCS /Gm /EHsc /RTC1 /MDd /GS /fp:precise /Zc:wchar_t /Zc:forScope /Fo"DEBUG\\" /Fd"DEBUG\VC120.PDB" /Gd /TP /analyze- C:\USERS\ACER - 419082\DOCUMENTS\VISUAL STUDIO 2013\PROJECTS\UDEMY PROJ 1\UDEMY PROJ 1\HERO.CPP
^C:\USERS\ACER - 419082\DOCUMENTS\VISUAL STUDIO 2013\PROJECTS\UDEMY PROJ 1\UDEMY PROJ 1\KEYBOARDINPUT.CPP
/c /IC:\sdl2\include /ZI /nologo /W3 /WX- /sdl /Od /Oy- /D _MBCS /Gm /EHsc /RTC1 /MDd /GS /fp:precise /Zc:wchar_t /Zc:forScope /Fo"DEBUG\\" /Fd"DEBUG\VC120.PDB" /Gd /TP /analyze- C:\USERS\ACER - 419082\DOCUMENTS\VISUAL STUDIO 2013\PROJECTS\UDEMY PROJ 1\UDEMY PROJ 1\KEYBOARDINPUT.CPP
^C:\USERS\ACER - 419082\DOCUMENTS\VISUAL STUDIO 2013\PROJECTS\UDEMY PROJ 1\UDEMY PROJ 1\LIVINGENTITY.CPP
/c /IC:\sdl2\include /ZI /nologo /W3 /WX- /sdl /Od /Oy- /D _MBCS /Gm /EHsc /RTC1 /MDd /GS /fp:precise /Zc:wchar_t /Zc:forScope /Fo"DEBUG\\" /Fd"DEBUG\VC120.PDB" /Gd /TP /analyze- C:\USERS\ACER - 419082\DOCUMENTS\VISUAL STUDIO 2013\PROJECTS\UDEMY PROJ 1\UDEMY PROJ 1\LIVINGENTITY.CPP
^C:\USERS\ACER - 419082\DOCUMENTS\VISUAL STUDIO 2013\PROJECTS\UDEMY PROJ 1\UDEMY PROJ 1\SOLIDENTITY.CPP
/c /IC:\sdl2\include /ZI /nologo /W3 /WX- /sdl /Od /Oy- /D _MBCS /Gm /EHsc /RTC1 /MDd /GS /fp:precise /Zc:wchar_t /Zc:forScope /Fo"DEBUG\\" /Fd"DEBUG\VC120.PDB" /Gd /TP /analyze- C:\USERS\ACER - 419082\DOCUMENTS\VISUAL STUDIO 2013\PROJECTS\UDEMY PROJ 1\UDEMY PROJ 1\SOLIDENTITY.CPP
^C:\USERS\ACER - 419082\DOCUMENTS\VISUAL STUDIO 2013\PROJECTS\UDEMY PROJ 1\UDEMY PROJ 1\WALL.CPP
/c /IC:\sdl2\include /ZI /nologo /W3 /WX- /sdl /Od /Oy- /D _MBCS /Gm /EHsc /RTC1 /MDd /GS /fp:precise /Zc:wchar_t /Zc:forScope /Fo"DEBUG\\" /Fd"DEBUG\VC120.PDB" /Gd /TP /analyze- C:\USERS\ACER - 419082\DOCUMENTS\VISUAL STUDIO 2013\PROJECTS\UDEMY PROJ 1\UDEMY PROJ 1\WALL.CPP
^C:\USERS\ACER - 419082\DOCUMENTS\VISUAL STUDIO 2013\PROJECTS\UDEMY PROJ 1\UDEMY PROJ 1\DATAGROUPTYPE.CPP
/c /IC:\sdl2\include /ZI /nologo /W3 /WX- /sdl /Od /Oy- /D _MBCS /Gm /EHsc /RTC1 /MDd /GS /fp:precise /Zc:wchar_t /Zc:forScope /Fo"DEBUG\\" /Fd"DEBUG\VC120.PDB" /Gd /TP /analyze- C:\USERS\ACER - 419082\DOCUMENTS\VISUAL STUDIO 2013\PROJECTS\UDEMY PROJ 1\UDEMY PROJ 1\DATAGROUPTYPE.CPP
^C:\USERS\ACER - 419082\DOCUMENTS\VISUAL STUDIO 2013\PROJECTS\UDEMY PROJ 1\UDEMY PROJ 1\FRAME.CPP
/c /IC:\sdl2\include /ZI /nologo /W3 /WX- /sdl /Od /Oy- /D _MBCS /Gm /EHsc /RTC1 /MDd /GS /fp:precise /Zc:wchar_t /Zc:forScope /Fo"DEBUG\\" /Fd"DEBUG\VC120.PDB" /Gd /TP /analyze- C:\USERS\ACER - 419082\DOCUMENTS\VISUAL STUDIO 2013\PROJECTS\UDEMY PROJ 1\UDEMY PROJ 1\FRAME.CPP
^C:\USERS\ACER - 419082\DOCUMENTS\VISUAL STUDIO 2013\PROJECTS\UDEMY PROJ 1\UDEMY PROJ 1\GROUPBUILDER.CPP
/c /IC:\sdl2\include /ZI /nologo /W3 /WX- /sdl /Od /Oy- /D _MBCS /Gm /EHsc /RTC1 /MDd /GS /fp:precise /Zc:wchar_t /Zc:forScope /Fo"DEBUG\\" /Fd"DEBUG\VC120.PDB" /Gd /TP /analyze- C:\USERS\ACER - 419082\DOCUMENTS\VISUAL STUDIO 2013\PROJECTS\UDEMY PROJ 1\UDEMY PROJ 1\GROUPBUILDER.CPP
^C:\USERS\ACER - 419082\DOCUMENTS\VISUAL STUDIO 2013\PROJECTS\UDEMY PROJ 1\UDEMY PROJ 1\TIMECONTROLLER.CPP
/c /IC:\sdl2\include /ZI /nologo /W3 /WX- /sdl /Od /Oy- /D _MBCS /Gm /EHsc /RTC1 /MDd /GS /fp:precise /Zc:wchar_t /Zc:forScope /Fo"DEBUG\\" /Fd"DEBUG\VC120.PDB" /Gd /TP /analyze- C:\USERS\ACER - 419082\DOCUMENTS\VISUAL STUDIO 2013\PROJECTS\UDEMY PROJ 1\UDEMY PROJ 1\TIMECONTROLLER.CPP
^C:\USERS\ACER - 419082\DOCUMENTS\VISUAL STUDIO 2013\PROJECTS\UDEMY PROJ 1\UDEMY PROJ 1\GLOB.CPP
/c /IC:\sdl2\include /ZI /nologo /W3 /WX- /sdl /Od /Oy- /D _MBCS /Gm /EHsc /RTC1 /MDd /GS /fp:precise /Zc:wchar_t /Zc:forScope /Fo"DEBUG\\" /Fd"DEBUG\VC120.PDB" /Gd /TP /analyze- C:\USERS\ACER - 419082\DOCUMENTS\VISUAL STUDIO 2013\PROJECTS\UDEMY PROJ 1\UDEMY PROJ 1\GLOB.CPP
^C:\USERS\ACER - 419082\DOCUMENTS\VISUAL STUDIO 2013\PROJECTS\UDEMY PROJ 1\UDEMY PROJ 1\SOUNDMANAGER.CPP
/c /IC:\sdl2\include /ZI /nologo /W3 /WX- /sdl /Od /Oy- /D _MBCS /Gm /EHsc /RTC1 /MDd /GS /fp:precise /Zc:wchar_t /Zc:forScope /Fo"DEBUG\\" /Fd"DEBUG\VC120.PDB" /Gd /TP /analyze- C:\USERS\ACER - 419082\DOCUMENTS\VISUAL STUDIO 2013\PROJECTS\UDEMY PROJ 1\UDEMY PROJ 1\SOUNDMANAGER.CPP
^C:\USERS\ACER - 419082\DOCUMENTS\VISUAL STUDIO 2013\PROJECTS\UDEMY PROJ 1\UDEMY PROJ 1\GROB.CPP
/c /IC:\sdl2\include /ZI /nologo /W3 /WX- /sdl /Od /Oy- /D _MBCS /Gm /EHsc /RTC1 /MDd /GS /fp:precise /Zc:wchar_t /Zc:forScope /Fo"DEBUG\\" /Fd"DEBUG\VC120.PDB" /Gd /TP /analyze- C:\USERS\ACER - 419082\DOCUMENTS\VISUAL STUDIO 2013\PROJECTS\UDEMY PROJ 1\UDEMY PROJ 1\GROB.CPP
^C:\USERS\ACER - 419082\DOCUMENTS\VISUAL STUDIO 2013\PROJECTS\FAKE SERVER TEST\UDEMY PROJ 1\ANIMATION.CPP
/c /IC:\sdl2\include /ZI /nologo /W3 /WX- /sdl /Od /Oy- /D _MBCS /Gm /EHsc /RTC1 /MDd /GS /fp:precise /Zc:wchar_t /Zc:forScope /Fo"DEBUG\\" /Fd"DEBUG\VC120.PDB" /Gd /TP /analyze- C:\USERS\ACER - 419082\DOCUMENTS\VISUAL STUDIO 2013\PROJECTS\FAKE SERVER TEST\UDEMY PROJ 1\ANIMATION.CPP
^C:\USERS\ACER - 419082\DOCUMENTS\VISUAL STUDIO 2013\PROJECTS\FAKE SERVER TEST\UDEMY PROJ 1\ANIMATIONSET.CPP
/c /IC:\sdl2\include /ZI /nologo /W3 /WX- /sdl /Od /Oy- /D _MBCS /Gm /EHsc /RTC1 /MDd /GS /fp:precise /Zc:wchar_t /Zc:forScope /Fo"DEBUG\\" /Fd"DEBUG\VC120.PDB" /Gd /TP /analyze- C:\USERS\ACER - 419082\DOCUMENTS\VISUAL STUDIO 2013\PROJECTS\FAKE SERVER TEST\UDEMY PROJ 1\ANIMATIONSET.CPP
^C:\USERS\ACER - 419082\DOCUMENTS\VISUAL STUDIO 2013\PROJECTS\FAKE SERVER TEST\UDEMY PROJ 1\ASSETMANAGER.CPP
/c /IC:\sdl2\include /ZI /nologo /W3 /WX- /sdl /Od /Oy- /D _MBCS /Gm /EHsc /RTC1 /MDd /GS /fp:precise /Zc:wchar_t /Zc:forScope /Fo"DEBUG\\" /Fd"DEBUG\VC120.PDB" /Gd /TP /analyze- C:\USERS\ACER - 419082\DOCUMENTS\VISUAL STUDIO 2013\PROJECTS\FAKE SERVER TEST\UDEMY PROJ 1\ASSETMANAGER.CPP
^C:\USERS\ACER - 419082\DOCUMENTS\VISUAL STUDIO 2013\PROJECTS\FAKE SERVER TEST\UDEMY PROJ 1\CLEANUP.CPP
/c /IC:\sdl2\include /ZI /nologo /W3 /WX- /sdl /Od /Oy- /D _MBCS /Gm /EHsc /RTC1 /MDd /GS /fp:precise /Zc:wchar_t /Zc:forScope /Fo"DEBUG\\" /Fd"DEBUG\VC120.PDB" /Gd /TP /analyze- C:\USERS\ACER - 419082\DOCUMENTS\VISUAL STUDIO 2013\PROJECTS\FAKE SERVER TEST\UDEMY PROJ 1\CLEANUP.CPP
^C:\USERS\ACER - 419082\DOCUMENTS\VISUAL STUDIO 2013\PROJECTS\FAKE SERVER TEST\UDEMY PROJ 1\DATAGROUPTYPE.CPP
/c /IC:\sdl2\include /ZI /nologo /W3 /WX- /sdl /Od /Oy- /D _MBCS /Gm /EHsc /RTC1 /MDd /GS /fp:precise /Zc:wchar_t /Zc:forScope /Fo"DEBUG\\" /Fd"DEBUG\VC120.PDB" /Gd /TP /analyze- C:\USERS\ACER - 419082\DOCUMENTS\VISUAL STUDIO 2013\PROJECTS\FAKE SERVER TEST\UDEMY PROJ 1\DATAGROUPTYPE.CPP
^C:\USERS\ACER - 419082\DOCUMENTS\VISUAL STUDIO 2013\PROJECTS\FAKE SERVER TEST\UDEMY PROJ 1\DRAWING_FUNCTIONS.CPP
/c /IC:\sdl2\include /ZI /nologo /W3 /WX- /sdl /Od /Oy- /D _MBCS /Gm /EHsc /RTC1 /MDd /GS /fp:precise /Zc:wchar_t /Zc:forScope /Fo"DEBUG\\" /Fd"DEBUG\VC120.PDB" /Gd /TP /analyze- C:\USERS\ACER - 419082\DOCUMENTS\VISUAL STUDIO 2013\PROJECTS\FAKE SERVER TEST\UDEMY PROJ 1\DRAWING_FUNCTIONS.CPP
^C:\USERS\ACER - 419082\DOCUMENTS\VISUAL STUDIO 2013\PROJECTS\FAKE SERVER TEST\UDEMY PROJ 1\ENTITY.CPP
/c /IC:\sdl2\include /ZI /nologo /W3 /WX- /sdl /Od /Oy- /D _MBCS /Gm /EHsc /RTC1 /MDd /GS /fp:precise /Zc:wchar_t /Zc:forScope /Fo"DEBUG\\" /Fd"DEBUG\VC120.PDB" /Gd /TP /analyze- C:\USERS\ACER - 419082\DOCUMENTS\VISUAL STUDIO 2013\PROJECTS\FAKE SERVER TEST\UDEMY PROJ 1\ENTITY.CPP
^C:\USERS\ACER - 419082\DOCUMENTS\VISUAL STUDIO 2013\PROJECTS\FAKE SERVER TEST\UDEMY PROJ 1\FRAME.CPP
/c /IC:\sdl2\include /ZI /nologo /W3 /WX- /sdl /Od /Oy- /D _MBCS /Gm /EHsc /RTC1 /MDd /GS /fp:precise /Zc:wchar_t /Zc:forScope /Fo"DEBUG\\" /Fd"DEBUG\VC120.PDB" /Gd /TP /analyze- C:\USERS\ACER - 419082\DOCUMENTS\VISUAL STUDIO 2013\PROJECTS\FAKE SERVER TEST\UDEMY PROJ 1\FRAME.CPP
^C:\USERS\ACER - 419082\DOCUMENTS\VISUAL STUDIO 2013\PROJECTS\FAKE SERVER TEST\UDEMY PROJ 1\GAME.CPP
/c /IC:\sdl2\include /ZI /nologo /W3 /WX- /sdl /Od /Oy- /D _MBCS /Gm /EHsc /RTC1 /MDd /GS /fp:precise /Zc:wchar_t /Zc:forScope /Fo"DEBUG\\" /Fd"DEBUG\VC120.PDB" /Gd /TP /analyze- C:\USERS\ACER - 419082\DOCUMENTS\VISUAL STUDIO 2013\PROJECTS\FAKE SERVER TEST\UDEMY PROJ 1\GAME.CPP
^C:\USERS\ACER - 419082\DOCUMENTS\VISUAL STUDIO 2013\PROJECTS\FAKE SERVER TEST\UDEMY PROJ 1\GLOB.CPP
/c /IC:\sdl2\include /ZI /nologo /W3 /WX- /sdl /Od /Oy- /D _MBCS /Gm /EHsc /RTC1 /MDd /GS /fp:precise /Zc:wchar_t /Zc:forScope /Fo"DEBUG\\" /Fd"DEBUG\VC120.PDB" /Gd /TP /analyze- C:\USERS\ACER - 419082\DOCUMENTS\VISUAL STUDIO 2013\PROJECTS\FAKE SERVER TEST\UDEMY PROJ 1\GLOB.CPP
^C:\USERS\ACER - 419082\DOCUMENTS\VISUAL STUDIO 2013\PROJECTS\FAKE SERVER TEST\UDEMY PROJ 1\GLOBALS.CPP
/c /IC:\sdl2\include /ZI /nologo /W3 /WX- /sdl /Od /Oy- /D _MBCS /Gm /EHsc /RTC1 /MDd /GS /fp:precise /Zc:wchar_t /Zc:forScope /Fo"DEBUG\\" /Fd"DEBUG\VC120.PDB" /Gd /TP /analyze- C:\USERS\ACER - 419082\DOCUMENTS\VISUAL STUDIO 2013\PROJECTS\FAKE SERVER TEST\UDEMY PROJ 1\GLOBALS.CPP
^C:\USERS\ACER - 419082\DOCUMENTS\VISUAL STUDIO 2013\PROJECTS\FAKE SERVER TEST\UDEMY PROJ 1\GROB.CPP
/c /IC:\sdl2\include /ZI /nologo /W3 /WX- /sdl /Od /Oy- /D _MBCS /Gm /EHsc /RTC1 /MDd /GS /fp:precise /Zc:wchar_t /Zc:forScope /Fo"DEBUG\\" /Fd"DEBUG\VC120.PDB" /Gd /TP /analyze- C:\USERS\ACER - 419082\DOCUMENTS\VISUAL STUDIO 2013\PROJECTS\FAKE SERVER TEST\UDEMY PROJ 1\GROB.CPP
^C:\USERS\ACER - 419082\DOCUMENTS\VISUAL STUDIO 2013\PROJECTS\FAKE SERVER TEST\UDEMY PROJ 1\GROUPBUILDER.CPP
/c /IC:\sdl2\include /ZI /nologo /W3 /WX- /sdl /Od /Oy- /D _MBCS /Gm /EHsc /RTC1 /MDd /GS /fp:precise /Zc:wchar_t /Zc:forScope /Fo"DEBUG\\" /Fd"DEBUG\VC120.PDB" /Gd /TP /analyze- C:\USERS\ACER - 419082\DOCUMENTS\VISUAL STUDIO 2013\PROJECTS\FAKE SERVER TEST\UDEMY PROJ 1\GROUPBUILDER.CPP
^C:\USERS\ACER - 419082\DOCUMENTS\VISUAL STUDIO 2013\PROJECTS\FAKE SERVER TEST\UDEMY PROJ 1\HERO.CPP
/c /IC:\sdl2\include /ZI /nologo /W3 /WX- /sdl /Od /Oy- /D _MBCS /Gm /EHsc /RTC1 /MDd /GS /fp:precise /Zc:wchar_t /Zc:forScope /Fo"DEBUG\\" /Fd"DEBUG\VC120.PDB" /Gd /TP /analyze- C:\USERS\ACER - 419082\DOCUMENTS\VISUAL STUDIO 2013\PROJECTS\FAKE SERVER TEST\UDEMY PROJ 1\HERO.CPP
^C:\USERS\ACER - 419082\DOCUMENTS\VISUAL STUDIO 2013\PROJECTS\FAKE SERVER TEST\UDEMY PROJ 1\KEYBOARDINPUT.CPP
/c /IC:\sdl2\include /ZI /nologo /W3 /WX- /sdl /Od /Oy- /D _MBCS /Gm /EHsc /RTC1 /MDd /GS /fp:precise /Zc:wchar_t /Zc:forScope /Fo"DEBUG\\" /Fd"DEBUG\VC120.PDB" /Gd /TP /analyze- C:\USERS\ACER - 419082\DOCUMENTS\VISUAL STUDIO 2013\PROJECTS\FAKE SERVER TEST\UDEMY PROJ 1\KEYBOARDINPUT.CPP
^C:\USERS\ACER - 419082\DOCUMENTS\VISUAL STUDIO 2013\PROJECTS\FAKE SERVER TEST\UDEMY PROJ 1\LIVINGENTITY.CPP
/c /IC:\sdl2\include /ZI /nologo /W3 /WX- /sdl /Od /Oy- /D _MBCS /Gm /EHsc /RTC1 /MDd /GS /fp:precise /Zc:wchar_t /Zc:forScope /Fo"DEBUG\\" /Fd"DEBUG\VC120.PDB" /Gd /TP /analyze- C:\USERS\ACER - 419082\DOCUMENTS\VISUAL STUDIO 2013\PROJECTS\FAKE SERVER TEST\UDEMY PROJ 1\LIVINGENTITY.CPP
^C:\USERS\ACER - 419082\DOCUMENTS\VISUAL STUDIO 2013\PROJECTS\FAKE SERVER TEST\UDEMY PROJ 1\MAIN.CPP
/c /IC:\sdl2\include /ZI /nologo /W3 /WX- /sdl /Od /Oy- /D _MBCS /Gm /EHsc /RTC1 /MDd /GS /fp:precise /Zc:wchar_t /Zc:forScope /Fo"DEBUG\\" /Fd"DEBUG\VC120.PDB" /Gd /TP /analyze- C:\USERS\ACER - 419082\DOCUMENTS\VISUAL STUDIO 2013\PROJECTS\FAKE SERVER TEST\UDEMY PROJ 1\MAIN.CPP
^C:\USERS\ACER - 419082\DOCUMENTS\VISUAL STUDIO 2013\PROJECTS\FAKE SERVER TEST\UDEMY PROJ 1\RANDOMNUMBER.CPP
/c /IC:\sdl2\include /ZI /nologo /W3 /WX- /sdl /Od /Oy- /D _MBCS /Gm /EHsc /RTC1 /MDd /GS /fp:precise /Zc:wchar_t /Zc:forScope /Fo"DEBUG\\" /Fd"DEBUG\VC120.PDB" /Gd /TP /analyze- C:\USERS\ACER - 419082\DOCUMENTS\VISUAL STUDIO 2013\PROJECTS\FAKE SERVER TEST\UDEMY PROJ 1\RANDOMNUMBER.CPP
^C:\USERS\ACER - 419082\DOCUMENTS\VISUAL STUDIO 2013\PROJECTS\FAKE SERVER TEST\UDEMY PROJ 1\RES_PATH.CPP
/c /IC:\sdl2\include /ZI /nologo /W3 /WX- /sdl /Od /Oy- /D _MBCS /Gm /EHsc /RTC1 /MDd /GS /fp:precise /Zc:wchar_t /Zc:forScope /Fo"DEBUG\\" /Fd"DEBUG\VC120.PDB" /Gd /TP /analyze- C:\USERS\ACER - 419082\DOCUMENTS\VISUAL STUDIO 2013\PROJECTS\FAKE SERVER TEST\UDEMY PROJ 1\RES_PATH.CPP
^C:\USERS\ACER - 419082\DOCUMENTS\VISUAL STUDIO 2013\PROJECTS\FAKE SERVER TEST\UDEMY PROJ 1\SOUNDMANAGER.CPP
/c /IC:\sdl2\include /ZI /nologo /W3 /WX- /sdl /Od /Oy- /D _MBCS /Gm /EHsc /RTC1 /MDd /GS /fp:precise /Zc:wchar_t /Zc:forScope /Fo"DEBUG\\" /Fd"DEBUG\VC120.PDB" /Gd /TP /analyze- C:\USERS\ACER - 419082\DOCUMENTS\VISUAL STUDIO 2013\PROJECTS\FAKE SERVER TEST\UDEMY PROJ 1\SOUNDMANAGER.CPP
^C:\USERS\ACER - 419082\DOCUMENTS\VISUAL STUDIO 2013\PROJECTS\FAKE SERVER TEST\UDEMY PROJ 1\TIMECONTROLLER.CPP
/c /IC:\sdl2\include /ZI /nologo /W3 /WX- /sdl /Od /Oy- /D _MBCS /Gm /EHsc /RTC1 /MDd /GS /fp:precise /Zc:wchar_t /Zc:forScope /Fo"DEBUG\\" /Fd"DEBUG\VC120.PDB" /Gd /TP /analyze- C:\USERS\ACER - 419082\DOCUMENTS\VISUAL STUDIO 2013\PROJECTS\FAKE SERVER TEST\UDEMY PROJ 1\TIMECONTROLLER.CPP
^C:\USERS\ACER - 419082\DOCUMENTS\VISUAL STUDIO 2013\PROJECTS\FAKE SERVER TEST\UDEMY PROJ 1\TIMEFRAME.CPP
/c /IC:\sdl2\include /ZI /nologo /W3 /WX- /sdl /Od /Oy- /D _MBCS /Gm /EHsc /RTC1 /MDd /GS /fp:precise /Zc:wchar_t /Zc:forScope /Fo"DEBUG\\" /Fd"DEBUG\VC120.PDB" /Gd /TP /analyze- C:\USERS\ACER - 419082\DOCUMENTS\VISUAL STUDIO 2013\PROJECTS\FAKE SERVER TEST\UDEMY PROJ 1\TIMEFRAME.CPP
^C:\USERS\ACER - 419082\DOCUMENTS\VISUAL STUDIO 2013\PROJECTS\FAKE SERVER TEST\UDEMY PROJ 1\WALL.CPP
/c /IC:\sdl2\include /ZI /nologo /W3 /WX- /sdl /Od /Oy- /D _MBCS /Gm /EHsc /RTC1 /MDd /GS /fp:precise /Zc:wchar_t /Zc:forScope /Fo"DEBUG\\" /Fd"DEBUG\VC120.PDB" /Gd /TP /analyze- C:\USERS\ACER - 419082\DOCUMENTS\VISUAL STUDIO 2013\PROJECTS\FAKE SERVER TEST\UDEMY PROJ 1\WALL.CPP
